%YAML 1.1
%TAG !u! tag:unity3d.com,2011:
--- !u!29 &1
OcclusionCullingSettings:
  m_ObjectHideFlags: 0
  serializedVersion: 2
  m_OcclusionBakeSettings:
    smallestOccluder: 5
    smallestHole: 0.25
    backfaceThreshold: 100
  m_SceneGUID: 00000000000000000000000000000000
  m_OcclusionCullingData: {fileID: 0}
--- !u!104 &2
RenderSettings:
  m_ObjectHideFlags: 0
  serializedVersion: 9
  m_Fog: 0
  m_FogColor: {r: 0.5, g: 0.5, b: 0.5, a: 1}
  m_FogMode: 3
  m_FogDensity: 0.01
  m_LinearFogStart: 0
  m_LinearFogEnd: 300
  m_AmbientSkyColor: {r: 0.212, g: 0.227, b: 0.259, a: 1}
  m_AmbientEquatorColor: {r: 0.114, g: 0.125, b: 0.133, a: 1}
  m_AmbientGroundColor: {r: 0.047, g: 0.043, b: 0.035, a: 1}
  m_AmbientIntensity: 1
  m_AmbientMode: 0
  m_SubtractiveShadowColor: {r: 0.42, g: 0.478, b: 0.627, a: 1}
  m_SkyboxMaterial: {fileID: 10304, guid: 0000000000000000f000000000000000, type: 0}
  m_HaloStrength: 0.5
  m_FlareStrength: 1
  m_FlareFadeSpeed: 3
  m_HaloTexture: {fileID: 0}
  m_SpotCookie: {fileID: 10001, guid: 0000000000000000e000000000000000, type: 0}
  m_DefaultReflectionMode: 0
  m_DefaultReflectionResolution: 128
  m_ReflectionBounces: 1
  m_ReflectionIntensity: 1
  m_CustomReflection: {fileID: 0}
  m_Sun: {fileID: 0}
  m_IndirectSpecularColor: {r: 0.18028378, g: 0.22571412, b: 0.30692285, a: 1}
  m_UseRadianceAmbientProbe: 0
--- !u!157 &3
LightmapSettings:
  m_ObjectHideFlags: 0
  serializedVersion: 12
  m_GIWorkflowMode: 0
  m_GISettings:
    serializedVersion: 2
    m_BounceScale: 1
    m_IndirectOutputScale: 1
    m_AlbedoBoost: 1
    m_EnvironmentLightingMode: 0
    m_EnableBakedLightmaps: 1
    m_EnableRealtimeLightmaps: 1
  m_LightmapEditorSettings:
    serializedVersion: 12
    m_Resolution: 2
    m_BakeResolution: 40
    m_AtlasSize: 1024
    m_AO: 0
    m_AOMaxDistance: 1
    m_CompAOExponent: 1
    m_CompAOExponentDirect: 0
    m_ExtractAmbientOcclusion: 0
    m_Padding: 2
    m_LightmapParameters: {fileID: 0}
    m_LightmapsBakeMode: 1
    m_TextureCompression: 1
    m_FinalGather: 0
    m_FinalGatherFiltering: 1
    m_FinalGatherRayCount: 256
    m_ReflectionCompression: 2
    m_MixedBakeMode: 1
    m_BakeBackend: 0
    m_PVRSampling: 1
    m_PVRDirectSampleCount: 32
    m_PVRSampleCount: 512
    m_PVRBounces: 2
    m_PVREnvironmentSampleCount: 512
    m_PVREnvironmentReferencePointCount: 2048
    m_PVRFilteringMode: 0
    m_PVRDenoiserTypeDirect: 0
    m_PVRDenoiserTypeIndirect: 0
    m_PVRDenoiserTypeAO: 0
    m_PVRFilterTypeDirect: 0
    m_PVRFilterTypeIndirect: 0
    m_PVRFilterTypeAO: 0
    m_PVREnvironmentMIS: 0
    m_PVRCulling: 1
    m_PVRFilteringGaussRadiusDirect: 1
    m_PVRFilteringGaussRadiusIndirect: 5
    m_PVRFilteringGaussRadiusAO: 2
    m_PVRFilteringAtrousPositionSigmaDirect: 0.5
    m_PVRFilteringAtrousPositionSigmaIndirect: 2
    m_PVRFilteringAtrousPositionSigmaAO: 1
    m_ExportTrainingData: 0
    m_TrainingDataDestination: TrainingData
    m_LightProbeSampleCountMultiplier: 4
  m_LightingDataAsset: {fileID: 0}
  m_LightingSettings: {fileID: 4890085278179872738, guid: 9f13dd419fd347c47a33f5332a2a462a,
    type: 2}
--- !u!196 &4
NavMeshSettings:
  serializedVersion: 2
  m_ObjectHideFlags: 0
  m_BuildSettings:
    serializedVersion: 2
    agentTypeID: 0
    agentRadius: 0.5
    agentHeight: 2
    agentSlope: 45
    agentClimb: 0.4
    ledgeDropHeight: 0
    maxJumpAcrossDistance: 0
    minRegionArea: 2
    manualCellSize: 0
    cellSize: 0.16666667
    manualTileSize: 0
    tileSize: 256
    accuratePlacement: 0
    maxJobWorkers: 0
    preserveTilesOutsideBounds: 0
    debug:
      m_Flags: 0
  m_NavMeshData: {fileID: 0}
--- !u!1001 &9909277
PrefabInstance:
  m_ObjectHideFlags: 0
  serializedVersion: 2
  m_Modification:
    m_TransformParent: {fileID: 0}
    m_Modifications:
    - target: {fileID: 4462874176407332, guid: 14e4dbfedeed34648a4e56ed976db3f8, type: 3}
      propertyPath: m_RootOrder
      value: 15
      objectReference: {fileID: 0}
    - target: {fileID: 4462874176407332, guid: 14e4dbfedeed34648a4e56ed976db3f8, type: 3}
      propertyPath: m_LocalPosition.x
      value: -7.73
      objectReference: {fileID: 0}
    - target: {fileID: 4462874176407332, guid: 14e4dbfedeed34648a4e56ed976db3f8, type: 3}
      propertyPath: m_LocalPosition.y
      value: 0
      objectReference: {fileID: 0}
    - target: {fileID: 4462874176407332, guid: 14e4dbfedeed34648a4e56ed976db3f8, type: 3}
      propertyPath: m_LocalPosition.z
      value: 0
      objectReference: {fileID: 0}
    - target: {fileID: 4462874176407332, guid: 14e4dbfedeed34648a4e56ed976db3f8, type: 3}
      propertyPath: m_LocalRotation.w
      value: 1
      objectReference: {fileID: 0}
    - target: {fileID: 4462874176407332, guid: 14e4dbfedeed34648a4e56ed976db3f8, type: 3}
      propertyPath: m_LocalRotation.x
      value: 0
      objectReference: {fileID: 0}
    - target: {fileID: 4462874176407332, guid: 14e4dbfedeed34648a4e56ed976db3f8, type: 3}
      propertyPath: m_LocalRotation.y
      value: 0
      objectReference: {fileID: 0}
    - target: {fileID: 4462874176407332, guid: 14e4dbfedeed34648a4e56ed976db3f8, type: 3}
      propertyPath: m_LocalRotation.z
      value: 0
      objectReference: {fileID: 0}
    m_RemovedComponents: []
  m_SourcePrefab: {fileID: 100100000, guid: 14e4dbfedeed34648a4e56ed976db3f8, type: 3}
--- !u!1001 &10340540
PrefabInstance:
  m_ObjectHideFlags: 0
  serializedVersion: 2
  m_Modification:
    m_TransformParent: {fileID: 0}
    m_Modifications:
    - target: {fileID: 4778937559867194, guid: 5c3af2a5c6f308e4eab01e42f609b480, type: 3}
      propertyPath: m_RootOrder
      value: 11
      objectReference: {fileID: 0}
    - target: {fileID: 4778937559867194, guid: 5c3af2a5c6f308e4eab01e42f609b480, type: 3}
      propertyPath: m_LocalPosition.x
      value: -15.34
      objectReference: {fileID: 0}
    - target: {fileID: 4778937559867194, guid: 5c3af2a5c6f308e4eab01e42f609b480, type: 3}
      propertyPath: m_LocalPosition.y
      value: 0
      objectReference: {fileID: 0}
    - target: {fileID: 4778937559867194, guid: 5c3af2a5c6f308e4eab01e42f609b480, type: 3}
      propertyPath: m_LocalPosition.z
      value: 0.02
      objectReference: {fileID: 0}
    - target: {fileID: 4778937559867194, guid: 5c3af2a5c6f308e4eab01e42f609b480, type: 3}
      propertyPath: m_LocalRotation.w
      value: 1
      objectReference: {fileID: 0}
    - target: {fileID: 4778937559867194, guid: 5c3af2a5c6f308e4eab01e42f609b480, type: 3}
      propertyPath: m_LocalRotation.x
      value: 0
      objectReference: {fileID: 0}
    - target: {fileID: 4778937559867194, guid: 5c3af2a5c6f308e4eab01e42f609b480, type: 3}
      propertyPath: m_LocalRotation.y
      value: 0
      objectReference: {fileID: 0}
    - target: {fileID: 4778937559867194, guid: 5c3af2a5c6f308e4eab01e42f609b480, type: 3}
      propertyPath: m_LocalRotation.z
      value: 0
      objectReference: {fileID: 0}
    m_RemovedComponents: []
  m_SourcePrefab: {fileID: 100100000, guid: 5c3af2a5c6f308e4eab01e42f609b480, type: 3}
--- !u!1001 &125315532
PrefabInstance:
  m_ObjectHideFlags: 0
  serializedVersion: 2
  m_Modification:
    m_TransformParent: {fileID: 0}
    m_Modifications:
    - target: {fileID: 4688688407754808, guid: 53e9a5ef062476c4cbf4139b117a1080, type: 3}
      propertyPath: m_RootOrder
      value: 5
      objectReference: {fileID: 0}
    - target: {fileID: 4688688407754808, guid: 53e9a5ef062476c4cbf4139b117a1080, type: 3}
      propertyPath: m_LocalPosition.x
      value: -10.21
      objectReference: {fileID: 0}
    - target: {fileID: 4688688407754808, guid: 53e9a5ef062476c4cbf4139b117a1080, type: 3}
      propertyPath: m_LocalPosition.y
      value: 0
      objectReference: {fileID: 0}
    - target: {fileID: 4688688407754808, guid: 53e9a5ef062476c4cbf4139b117a1080, type: 3}
      propertyPath: m_LocalPosition.z
      value: -3.69
      objectReference: {fileID: 0}
    - target: {fileID: 4688688407754808, guid: 53e9a5ef062476c4cbf4139b117a1080, type: 3}
      propertyPath: m_LocalRotation.w
      value: 1
      objectReference: {fileID: 0}
    - target: {fileID: 4688688407754808, guid: 53e9a5ef062476c4cbf4139b117a1080, type: 3}
      propertyPath: m_LocalRotation.x
      value: 0
      objectReference: {fileID: 0}
    - target: {fileID: 4688688407754808, guid: 53e9a5ef062476c4cbf4139b117a1080, type: 3}
      propertyPath: m_LocalRotation.y
      value: 0
      objectReference: {fileID: 0}
    - target: {fileID: 4688688407754808, guid: 53e9a5ef062476c4cbf4139b117a1080, type: 3}
      propertyPath: m_LocalRotation.z
      value: 0
      objectReference: {fileID: 0}
    m_RemovedComponents: []
  m_SourcePrefab: {fileID: 100100000, guid: 53e9a5ef062476c4cbf4139b117a1080, type: 3}
--- !u!1 &138144458
GameObject:
  m_ObjectHideFlags: 0
  m_CorrespondingSourceObject: {fileID: 0}
  m_PrefabInstance: {fileID: 0}
  m_PrefabAsset: {fileID: 0}
  serializedVersion: 6
  m_Component:
  - component: {fileID: 138144460}
  - component: {fileID: 138144459}
  m_Layer: 0
  m_Name: Directional Light
  m_TagString: Untagged
  m_Icon: {fileID: 0}
  m_NavMeshLayer: 0
  m_StaticEditorFlags: 0
  m_IsActive: 1
--- !u!108 &138144459
Light:
  m_ObjectHideFlags: 0
  m_CorrespondingSourceObject: {fileID: 0}
  m_PrefabInstance: {fileID: 0}
  m_PrefabAsset: {fileID: 0}
  m_GameObject: {fileID: 138144458}
  m_Enabled: 1
  serializedVersion: 10
  m_Type: 1
  m_Shape: 0
  m_Color: {r: 1, g: 0.95686275, b: 0.8392157, a: 1}
  m_Intensity: 1
  m_Range: 10
  m_SpotAngle: 30
  m_InnerSpotAngle: 21.80208
  m_CookieSize: 10
  m_Shadows:
    m_Type: 2
    m_Resolution: -1
    m_CustomResolution: -1
    m_Strength: 1
    m_Bias: 0.05
    m_NormalBias: 0.4
    m_NearPlane: 0.2
    m_CullingMatrixOverride:
      e00: 1
      e01: 0
      e02: 0
      e03: 0
      e10: 0
      e11: 1
      e12: 0
      e13: 0
      e20: 0
      e21: 0
      e22: 1
      e23: 0
      e30: 0
      e31: 0
      e32: 0
      e33: 1
    m_UseCullingMatrixOverride: 0
  m_Cookie: {fileID: 0}
  m_DrawHalo: 0
  m_Flare: {fileID: 0}
  m_RenderMode: 0
  m_CullingMask:
    serializedVersion: 2
    m_Bits: 4294967295
  m_RenderingLayerMask: 1
  m_Lightmapping: 4
  m_LightShadowCasterMode: 0
  m_AreaSize: {x: 1, y: 1}
  m_BounceIntensity: 1
  m_ColorTemperature: 6570
  m_UseColorTemperature: 0
  m_BoundingSphereOverride: {x: 0, y: 0, z: 0, w: 0}
  m_UseBoundingSphereOverride: 0
  m_UseViewFrustumForShadowCasterCull: 1
  m_ShadowRadius: 0
  m_ShadowAngle: 0
--- !u!4 &138144460
Transform:
  m_ObjectHideFlags: 0
  m_CorrespondingSourceObject: {fileID: 0}
  m_PrefabInstance: {fileID: 0}
  m_PrefabAsset: {fileID: 0}
  m_GameObject: {fileID: 138144458}
  m_LocalRotation: {x: 0.40821788, y: -0.23456968, z: 0.10938163, w: 0.8754261}
  m_LocalPosition: {x: 0, y: 3, z: 0}
  m_LocalScale: {x: 1, y: 1, z: 1}
  m_ConstrainProportionsScale: 0
  m_Children: []
  m_Father: {fileID: 0}
  m_RootOrder: 17
  m_LocalEulerAnglesHint: {x: 50, y: -30, z: 0}
--- !u!1001 &227491513
PrefabInstance:
  m_ObjectHideFlags: 0
  serializedVersion: 2
  m_Modification:
    m_TransformParent: {fileID: 0}
    m_Modifications:
    - target: {fileID: 4546774542237012, guid: d709f190cb36b4f4bb0a23d30417a426, type: 3}
      propertyPath: m_RootOrder
      value: 2
      objectReference: {fileID: 0}
    - target: {fileID: 4546774542237012, guid: d709f190cb36b4f4bb0a23d30417a426, type: 3}
      propertyPath: m_LocalPosition.x
      value: -22.51
      objectReference: {fileID: 0}
    - target: {fileID: 4546774542237012, guid: d709f190cb36b4f4bb0a23d30417a426, type: 3}
      propertyPath: m_LocalPosition.y
      value: 0
      objectReference: {fileID: 0}
    - target: {fileID: 4546774542237012, guid: d709f190cb36b4f4bb0a23d30417a426, type: 3}
      propertyPath: m_LocalPosition.z
      value: -3.96
      objectReference: {fileID: 0}
    - target: {fileID: 4546774542237012, guid: d709f190cb36b4f4bb0a23d30417a426, type: 3}
      propertyPath: m_LocalRotation.w
      value: 1
      objectReference: {fileID: 0}
    - target: {fileID: 4546774542237012, guid: d709f190cb36b4f4bb0a23d30417a426, type: 3}
      propertyPath: m_LocalRotation.x
      value: 0
      objectReference: {fileID: 0}
    - target: {fileID: 4546774542237012, guid: d709f190cb36b4f4bb0a23d30417a426, type: 3}
      propertyPath: m_LocalRotation.y
      value: 0
      objectReference: {fileID: 0}
    - target: {fileID: 4546774542237012, guid: d709f190cb36b4f4bb0a23d30417a426, type: 3}
      propertyPath: m_LocalRotation.z
      value: 0
      objectReference: {fileID: 0}
    m_RemovedComponents: []
  m_SourcePrefab: {fileID: 100100000, guid: d709f190cb36b4f4bb0a23d30417a426, type: 3}
--- !u!1001 &302541080
PrefabInstance:
  m_ObjectHideFlags: 0
  serializedVersion: 2
  m_Modification:
    m_TransformParent: {fileID: 0}
    m_Modifications:
    - target: {fileID: 4132589914579442, guid: f2346fe65bfdfba4f91a12c63e36b4e6, type: 3}
      propertyPath: m_RootOrder
      value: 13
      objectReference: {fileID: 0}
    - target: {fileID: 4132589914579442, guid: f2346fe65bfdfba4f91a12c63e36b4e6, type: 3}
      propertyPath: m_LocalPosition.x
      value: -11.61
      objectReference: {fileID: 0}
    - target: {fileID: 4132589914579442, guid: f2346fe65bfdfba4f91a12c63e36b4e6, type: 3}
      propertyPath: m_LocalPosition.y
      value: 0
      objectReference: {fileID: 0}
    - target: {fileID: 4132589914579442, guid: f2346fe65bfdfba4f91a12c63e36b4e6, type: 3}
      propertyPath: m_LocalPosition.z
      value: 0
      objectReference: {fileID: 0}
    - target: {fileID: 4132589914579442, guid: f2346fe65bfdfba4f91a12c63e36b4e6, type: 3}
      propertyPath: m_LocalRotation.w
      value: 1
      objectReference: {fileID: 0}
    - target: {fileID: 4132589914579442, guid: f2346fe65bfdfba4f91a12c63e36b4e6, type: 3}
      propertyPath: m_LocalRotation.x
      value: 0
      objectReference: {fileID: 0}
    - target: {fileID: 4132589914579442, guid: f2346fe65bfdfba4f91a12c63e36b4e6, type: 3}
      propertyPath: m_LocalRotation.y
      value: 0
      objectReference: {fileID: 0}
    - target: {fileID: 4132589914579442, guid: f2346fe65bfdfba4f91a12c63e36b4e6, type: 3}
      propertyPath: m_LocalRotation.z
      value: 0
      objectReference: {fileID: 0}
    m_RemovedComponents: []
  m_SourcePrefab: {fileID: 100100000, guid: f2346fe65bfdfba4f91a12c63e36b4e6, type: 3}
--- !u!1001 &387701043
PrefabInstance:
  m_ObjectHideFlags: 0
  serializedVersion: 2
  m_Modification:
    m_TransformParent: {fileID: 0}
    m_Modifications:
    - target: {fileID: 4592579417544746, guid: c14885f05467c4940b48da1c6b792d46, type: 3}
      propertyPath: m_RootOrder
      value: 9
      objectReference: {fileID: 0}
    - target: {fileID: 4592579417544746, guid: c14885f05467c4940b48da1c6b792d46, type: 3}
      propertyPath: m_LocalPosition.x
      value: -19.39
      objectReference: {fileID: 0}
    - target: {fileID: 4592579417544746, guid: c14885f05467c4940b48da1c6b792d46, type: 3}
      propertyPath: m_LocalPosition.y
      value: 0
      objectReference: {fileID: 0}
    - target: {fileID: 4592579417544746, guid: c14885f05467c4940b48da1c6b792d46, type: 3}
      propertyPath: m_LocalPosition.z
      value: 0
      objectReference: {fileID: 0}
    - target: {fileID: 4592579417544746, guid: c14885f05467c4940b48da1c6b792d46, type: 3}
      propertyPath: m_LocalRotation.w
      value: 1
      objectReference: {fileID: 0}
    - target: {fileID: 4592579417544746, guid: c14885f05467c4940b48da1c6b792d46, type: 3}
      propertyPath: m_LocalRotation.x
      value: 0
      objectReference: {fileID: 0}
    - target: {fileID: 4592579417544746, guid: c14885f05467c4940b48da1c6b792d46, type: 3}
      propertyPath: m_LocalRotation.y
      value: 0
      objectReference: {fileID: 0}
    - target: {fileID: 4592579417544746, guid: c14885f05467c4940b48da1c6b792d46, type: 3}
      propertyPath: m_LocalRotation.z
      value: 0
      objectReference: {fileID: 0}
    m_RemovedComponents: []
  m_SourcePrefab: {fileID: 100100000, guid: c14885f05467c4940b48da1c6b792d46, type: 3}
--- !u!1001 &923416259
PrefabInstance:
  m_ObjectHideFlags: 0
  serializedVersion: 2
  m_Modification:
    m_TransformParent: {fileID: 0}
    m_Modifications:
    - target: {fileID: 4067745292390566, guid: f96e520d9320b42489ba14b3b98210d9, type: 3}
      propertyPath: m_RootOrder
      value: 8
      objectReference: {fileID: 0}
    - target: {fileID: 4067745292390566, guid: f96e520d9320b42489ba14b3b98210d9, type: 3}
      propertyPath: m_LocalPosition.x
      value: -0.2
      objectReference: {fileID: 0}
    - target: {fileID: 4067745292390566, guid: f96e520d9320b42489ba14b3b98210d9, type: 3}
      propertyPath: m_LocalPosition.y
      value: 0
      objectReference: {fileID: 0}
    - target: {fileID: 4067745292390566, guid: f96e520d9320b42489ba14b3b98210d9, type: 3}
      propertyPath: m_LocalPosition.z
      value: -2.72
      objectReference: {fileID: 0}
    - target: {fileID: 4067745292390566, guid: f96e520d9320b42489ba14b3b98210d9, type: 3}
      propertyPath: m_LocalRotation.w
      value: 1
      objectReference: {fileID: 0}
    - target: {fileID: 4067745292390566, guid: f96e520d9320b42489ba14b3b98210d9, type: 3}
      propertyPath: m_LocalRotation.x
      value: 0
      objectReference: {fileID: 0}
    - target: {fileID: 4067745292390566, guid: f96e520d9320b42489ba14b3b98210d9, type: 3}
      propertyPath: m_LocalRotation.y
      value: 0
      objectReference: {fileID: 0}
    - target: {fileID: 4067745292390566, guid: f96e520d9320b42489ba14b3b98210d9, type: 3}
      propertyPath: m_LocalRotation.z
      value: 0
      objectReference: {fileID: 0}
    m_RemovedComponents: []
  m_SourcePrefab: {fileID: 100100000, guid: f96e520d9320b42489ba14b3b98210d9, type: 3}
--- !u!1001 &965944399
PrefabInstance:
  m_ObjectHideFlags: 0
  serializedVersion: 2
  m_Modification:
    m_TransformParent: {fileID: 0}
    m_Modifications:
    - target: {fileID: 4362762211466534, guid: d95d80e76bd0ef944ac46ca5d27a9dc5, type: 3}
      propertyPath: m_RootOrder
      value: 12
      objectReference: {fileID: 0}
    - target: {fileID: 4362762211466534, guid: d95d80e76bd0ef944ac46ca5d27a9dc5, type: 3}
      propertyPath: m_LocalPosition.x
      value: -13.55
      objectReference: {fileID: 0}
    - target: {fileID: 4362762211466534, guid: d95d80e76bd0ef944ac46ca5d27a9dc5, type: 3}
      propertyPath: m_LocalPosition.y
      value: 0
      objectReference: {fileID: 0}
    - target: {fileID: 4362762211466534, guid: d95d80e76bd0ef944ac46ca5d27a9dc5, type: 3}
      propertyPath: m_LocalPosition.z
      value: 0
      objectReference: {fileID: 0}
    - target: {fileID: 4362762211466534, guid: d95d80e76bd0ef944ac46ca5d27a9dc5, type: 3}
      propertyPath: m_LocalRotation.w
      value: 1
      objectReference: {fileID: 0}
    - target: {fileID: 4362762211466534, guid: d95d80e76bd0ef944ac46ca5d27a9dc5, type: 3}
      propertyPath: m_LocalRotation.x
      value: 0
      objectReference: {fileID: 0}
    - target: {fileID: 4362762211466534, guid: d95d80e76bd0ef944ac46ca5d27a9dc5, type: 3}
      propertyPath: m_LocalRotation.y
      value: 0
      objectReference: {fileID: 0}
    - target: {fileID: 4362762211466534, guid: d95d80e76bd0ef944ac46ca5d27a9dc5, type: 3}
      propertyPath: m_LocalRotation.z
      value: 0
      objectReference: {fileID: 0}
    m_RemovedComponents: []
  m_SourcePrefab: {fileID: 100100000, guid: d95d80e76bd0ef944ac46ca5d27a9dc5, type: 3}
--- !u!1001 &1008687565
PrefabInstance:
  m_ObjectHideFlags: 0
  serializedVersion: 2
  m_Modification:
    m_TransformParent: {fileID: 0}
    m_Modifications:
    - target: {fileID: 4155050226805502, guid: 5f0eaa9842847ed41b8a72cdd4780737, type: 3}
      propertyPath: m_RootOrder
      value: 14
      objectReference: {fileID: 0}
    - target: {fileID: 4155050226805502, guid: 5f0eaa9842847ed41b8a72cdd4780737, type: 3}
      propertyPath: m_LocalPosition.x
      value: -9.94
      objectReference: {fileID: 0}
    - target: {fileID: 4155050226805502, guid: 5f0eaa9842847ed41b8a72cdd4780737, type: 3}
      propertyPath: m_LocalPosition.y
      value: 0
      objectReference: {fileID: 0}
    - target: {fileID: 4155050226805502, guid: 5f0eaa9842847ed41b8a72cdd4780737, type: 3}
      propertyPath: m_LocalPosition.z
      value: 0
      objectReference: {fileID: 0}
    - target: {fileID: 4155050226805502, guid: 5f0eaa9842847ed41b8a72cdd4780737, type: 3}
      propertyPath: m_LocalRotation.w
      value: 1
      objectReference: {fileID: 0}
    - target: {fileID: 4155050226805502, guid: 5f0eaa9842847ed41b8a72cdd4780737, type: 3}
      propertyPath: m_LocalRotation.x
      value: 0
      objectReference: {fileID: 0}
    - target: {fileID: 4155050226805502, guid: 5f0eaa9842847ed41b8a72cdd4780737, type: 3}
      propertyPath: m_LocalRotation.y
      value: 0
      objectReference: {fileID: 0}
    - target: {fileID: 4155050226805502, guid: 5f0eaa9842847ed41b8a72cdd4780737, type: 3}
      propertyPath: m_LocalRotation.z
      value: 0
      objectReference: {fileID: 0}
    m_RemovedComponents: []
  m_SourcePrefab: {fileID: 100100000, guid: 5f0eaa9842847ed41b8a72cdd4780737, type: 3}
--- !u!1001 &1183459411
PrefabInstance:
  m_ObjectHideFlags: 0
  serializedVersion: 2
  m_Modification:
    m_TransformParent: {fileID: 0}
    m_Modifications:
    - target: {fileID: 4898133361560120, guid: 827da987b4b379149bee4269134beb97, type: 3}
      propertyPath: m_RootOrder
      value: 10
      objectReference: {fileID: 0}
    - target: {fileID: 4898133361560120, guid: 827da987b4b379149bee4269134beb97, type: 3}
      propertyPath: m_LocalPosition.x
      value: -17.42
      objectReference: {fileID: 0}
    - target: {fileID: 4898133361560120, guid: 827da987b4b379149bee4269134beb97, type: 3}
      propertyPath: m_LocalPosition.y
      value: 0
      objectReference: {fileID: 0}
    - target: {fileID: 4898133361560120, guid: 827da987b4b379149bee4269134beb97, type: 3}
      propertyPath: m_LocalPosition.z
      value: 0
      objectReference: {fileID: 0}
    - target: {fileID: 4898133361560120, guid: 827da987b4b379149bee4269134beb97, type: 3}
      propertyPath: m_LocalRotation.w
      value: 1
      objectReference: {fileID: 0}
    - target: {fileID: 4898133361560120, guid: 827da987b4b379149bee4269134beb97, type: 3}
      propertyPath: m_LocalRotation.x
      value: 0
      objectReference: {fileID: 0}
    - target: {fileID: 4898133361560120, guid: 827da987b4b379149bee4269134beb97, type: 3}
      propertyPath: m_LocalRotation.y
      value: 0
      objectReference: {fileID: 0}
    - target: {fileID: 4898133361560120, guid: 827da987b4b379149bee4269134beb97, type: 3}
      propertyPath: m_LocalRotation.z
      value: 0
      objectReference: {fileID: 0}
    m_RemovedComponents: []
  m_SourcePrefab: {fileID: 100100000, guid: 827da987b4b379149bee4269134beb97, type: 3}
--- !u!1001 &1266634893
PrefabInstance:
  m_ObjectHideFlags: 0
  serializedVersion: 2
  m_Modification:
    m_TransformParent: {fileID: 0}
    m_Modifications:
    - target: {fileID: 4687545734074558, guid: cc4074f22e26fd54599442ef02ee30fc, type: 3}
      propertyPath: m_RootOrder
      value: 1
      objectReference: {fileID: 0}
    - target: {fileID: 4687545734074558, guid: cc4074f22e26fd54599442ef02ee30fc, type: 3}
      propertyPath: m_LocalPosition.x
      value: -26.87
      objectReference: {fileID: 0}
    - target: {fileID: 4687545734074558, guid: cc4074f22e26fd54599442ef02ee30fc, type: 3}
      propertyPath: m_LocalPosition.y
      value: 0
      objectReference: {fileID: 0}
    - target: {fileID: 4687545734074558, guid: cc4074f22e26fd54599442ef02ee30fc, type: 3}
      propertyPath: m_LocalPosition.z
      value: -4.45
      objectReference: {fileID: 0}
    - target: {fileID: 4687545734074558, guid: cc4074f22e26fd54599442ef02ee30fc, type: 3}
      propertyPath: m_LocalRotation.w
      value: 1
      objectReference: {fileID: 0}
    - target: {fileID: 4687545734074558, guid: cc4074f22e26fd54599442ef02ee30fc, type: 3}
      propertyPath: m_LocalRotation.x
      value: 0
      objectReference: {fileID: 0}
    - target: {fileID: 4687545734074558, guid: cc4074f22e26fd54599442ef02ee30fc, type: 3}
      propertyPath: m_LocalRotation.y
      value: 0
      objectReference: {fileID: 0}
    - target: {fileID: 4687545734074558, guid: cc4074f22e26fd54599442ef02ee30fc, type: 3}
      propertyPath: m_LocalRotation.z
      value: 0
      objectReference: {fileID: 0}
    m_RemovedComponents: []
  m_SourcePrefab: {fileID: 100100000, guid: cc4074f22e26fd54599442ef02ee30fc, type: 3}
--- !u!1001 &1315152754
PrefabInstance:
  m_ObjectHideFlags: 0
  serializedVersion: 2
  m_Modification:
    m_TransformParent: {fileID: 0}
    m_Modifications:
    - target: {fileID: 4462270399367906, guid: b0061394c12a98242930329b043b6a79, type: 3}
      propertyPath: m_RootOrder
      value: 6
      objectReference: {fileID: 0}
    - target: {fileID: 4462270399367906, guid: b0061394c12a98242930329b043b6a79, type: 3}
      propertyPath: m_LocalPosition.x
      value: -6.3
      objectReference: {fileID: 0}
    - target: {fileID: 4462270399367906, guid: b0061394c12a98242930329b043b6a79, type: 3}
      propertyPath: m_LocalPosition.y
      value: 0
      objectReference: {fileID: 0}
    - target: {fileID: 4462270399367906, guid: b0061394c12a98242930329b043b6a79, type: 3}
      propertyPath: m_LocalPosition.z
      value: -3.87
      objectReference: {fileID: 0}
    - target: {fileID: 4462270399367906, guid: b0061394c12a98242930329b043b6a79, type: 3}
      propertyPath: m_LocalRotation.w
      value: 1
      objectReference: {fileID: 0}
    - target: {fileID: 4462270399367906, guid: b0061394c12a98242930329b043b6a79, type: 3}
      propertyPath: m_LocalRotation.x
      value: 0
      objectReference: {fileID: 0}
    - target: {fileID: 4462270399367906, guid: b0061394c12a98242930329b043b6a79, type: 3}
      propertyPath: m_LocalRotation.y
      value: 0
      objectReference: {fileID: 0}
    - target: {fileID: 4462270399367906, guid: b0061394c12a98242930329b043b6a79, type: 3}
      propertyPath: m_LocalRotation.z
      value: 0
      objectReference: {fileID: 0}
    - target: {fileID: 4462270399367906, guid: b0061394c12a98242930329b043b6a79, type: 3}
      propertyPath: m_LocalEulerAnglesHint.y
      value: 0
      objectReference: {fileID: 0}
    m_RemovedComponents: []
  m_SourcePrefab: {fileID: 100100000, guid: b0061394c12a98242930329b043b6a79, type: 3}
--- !u!1 &1324738281
GameObject:
  m_ObjectHideFlags: 0
  m_CorrespondingSourceObject: {fileID: 0}
  m_PrefabInstance: {fileID: 0}
  m_PrefabAsset: {fileID: 0}
  serializedVersion: 6
  m_Component:
  - component: {fileID: 1324738286}
  - component: {fileID: 1324738285}
  - component: {fileID: 1324738283}
  - component: {fileID: 1324738282}
  m_Layer: 0
  m_Name: Main Camera
  m_TagString: MainCamera
  m_Icon: {fileID: 0}
  m_NavMeshLayer: 0
  m_StaticEditorFlags: 0
  m_IsActive: 1
--- !u!81 &1324738282
AudioListener:
  m_ObjectHideFlags: 0
  m_CorrespondingSourceObject: {fileID: 0}
  m_PrefabInstance: {fileID: 0}
  m_PrefabAsset: {fileID: 0}
  m_GameObject: {fileID: 1324738281}
  m_Enabled: 1
--- !u!124 &1324738283
Behaviour:
  m_ObjectHideFlags: 0
  m_CorrespondingSourceObject: {fileID: 0}
  m_PrefabInstance: {fileID: 0}
  m_PrefabAsset: {fileID: 0}
  m_GameObject: {fileID: 1324738281}
  m_Enabled: 1
--- !u!20 &1324738285
Camera:
  m_ObjectHideFlags: 0
  m_CorrespondingSourceObject: {fileID: 0}
  m_PrefabInstance: {fileID: 0}
  m_PrefabAsset: {fileID: 0}
  m_GameObject: {fileID: 1324738281}
  m_Enabled: 1
  serializedVersion: 2
  m_ClearFlags: 1
  m_BackGroundColor: {r: 0.19215687, g: 0.3019608, b: 0.4745098, a: 0}
  m_projectionMatrixMode: 1
  m_GateFitMode: 2
  m_FOVAxisMode: 0
  m_SensorSize: {x: 36, y: 24}
  m_LensShift: {x: 0, y: 0}
  m_FocalLength: 50
  m_NormalizedViewPortRect:
    serializedVersion: 2
    x: 0
    y: 0
    width: 1
    height: 1
  near clip plane: 0.3
  far clip plane: 1000
  field of view: 60
  orthographic: 0
  orthographic size: 5
  m_Depth: -1
  m_CullingMask:
    serializedVersion: 2
    m_Bits: 4294967295
  m_RenderingPath: -1
  m_TargetTexture: {fileID: 0}
  m_TargetDisplay: 0
  m_TargetEye: 3
  m_HDR: 0
  m_AllowMSAA: 1
  m_AllowDynamicResolution: 0
  m_ForceIntoRT: 0
  m_OcclusionCulling: 1
  m_StereoConvergence: 10
  m_StereoSeparation: 0.022
--- !u!4 &1324738286
Transform:
  m_ObjectHideFlags: 0
  m_CorrespondingSourceObject: {fileID: 0}
  m_PrefabInstance: {fileID: 0}
  m_PrefabAsset: {fileID: 0}
  m_GameObject: {fileID: 1324738281}
  m_LocalRotation: {x: 0, y: 0, z: 0, w: 1}
  m_LocalPosition: {x: 7.64, y: 1, z: -10}
  m_LocalScale: {x: 1, y: 1, z: 1}
  m_ConstrainProportionsScale: 0
  m_Children: []
  m_Father: {fileID: 0}
  m_RootOrder: 0
  m_LocalEulerAnglesHint: {x: 0, y: 0, z: 0}
--- !u!1001 &1497157814
PrefabInstance:
  m_ObjectHideFlags: 0
  serializedVersion: 2
  m_Modification:
    m_TransformParent: {fileID: 0}
    m_Modifications:
    - target: {fileID: 4601591106160086, guid: 0676a81b6b274744bac5dd88f3ad09ea, type: 3}
      propertyPath: m_RootOrder
      value: 7
      objectReference: {fileID: 0}
    - target: {fileID: 4601591106160086, guid: 0676a81b6b274744bac5dd88f3ad09ea, type: 3}
      propertyPath: m_LocalPosition.x
      value: -3.19
      objectReference: {fileID: 0}
    - target: {fileID: 4601591106160086, guid: 0676a81b6b274744bac5dd88f3ad09ea, type: 3}
      propertyPath: m_LocalPosition.y
      value: 0
      objectReference: {fileID: 0}
    - target: {fileID: 4601591106160086, guid: 0676a81b6b274744bac5dd88f3ad09ea, type: 3}
      propertyPath: m_LocalPosition.z
      value: -3.4
      objectReference: {fileID: 0}
    - target: {fileID: 4601591106160086, guid: 0676a81b6b274744bac5dd88f3ad09ea, type: 3}
      propertyPath: m_LocalRotation.w
      value: 1
      objectReference: {fileID: 0}
    - target: {fileID: 4601591106160086, guid: 0676a81b6b274744bac5dd88f3ad09ea, type: 3}
      propertyPath: m_LocalRotation.x
      value: 0
      objectReference: {fileID: 0}
    - target: {fileID: 4601591106160086, guid: 0676a81b6b274744bac5dd88f3ad09ea, type: 3}
      propertyPath: m_LocalRotation.y
      value: 0
      objectReference: {fileID: 0}
    - target: {fileID: 4601591106160086, guid: 0676a81b6b274744bac5dd88f3ad09ea, type: 3}
      propertyPath: m_LocalRotation.z
      value: 0
      objectReference: {fileID: 0}
    m_RemovedComponents: []
  m_SourcePrefab: {fileID: 100100000, guid: 0676a81b6b274744bac5dd88f3ad09ea, type: 3}
--- !u!1001 &1579449916
PrefabInstance:
  m_ObjectHideFlags: 0
  serializedVersion: 2
  m_Modification:
    m_TransformParent: {fileID: 0}
    m_Modifications:
    - target: {fileID: 4676838353132196, guid: 4ea8f771a7b04ac4faa914f4be6b0e15, type: 3}
      propertyPath: m_RootOrder
      value: 3
      objectReference: {fileID: 0}
    - target: {fileID: 4676838353132196, guid: 4ea8f771a7b04ac4faa914f4be6b0e15, type: 3}
      propertyPath: m_LocalPosition.x
      value: -17.85
      objectReference: {fileID: 0}
    - target: {fileID: 4676838353132196, guid: 4ea8f771a7b04ac4faa914f4be6b0e15, type: 3}
      propertyPath: m_LocalPosition.y
      value: 0
      objectReference: {fileID: 0}
    - target: {fileID: 4676838353132196, guid: 4ea8f771a7b04ac4faa914f4be6b0e15, type: 3}
      propertyPath: m_LocalPosition.z
      value: -4.26
      objectReference: {fileID: 0}
    - target: {fileID: 4676838353132196, guid: 4ea8f771a7b04ac4faa914f4be6b0e15, type: 3}
      propertyPath: m_LocalRotation.w
      value: 1
      objectReference: {fileID: 0}
    - target: {fileID: 4676838353132196, guid: 4ea8f771a7b04ac4faa914f4be6b0e15, type: 3}
      propertyPath: m_LocalRotation.x
      value: 0
      objectReference: {fileID: 0}
    - target: {fileID: 4676838353132196, guid: 4ea8f771a7b04ac4faa914f4be6b0e15, type: 3}
      propertyPath: m_LocalRotation.y
      value: 0
      objectReference: {fileID: 0}
    - target: {fileID: 4676838353132196, guid: 4ea8f771a7b04ac4faa914f4be6b0e15, type: 3}
      propertyPath: m_LocalRotation.z
      value: 0
      objectReference: {fileID: 0}
    m_RemovedComponents: []
  m_SourcePrefab: {fileID: 100100000, guid: 4ea8f771a7b04ac4faa914f4be6b0e15, type: 3}
--- !u!1001 &1629666254
PrefabInstance:
  m_ObjectHideFlags: 0
  serializedVersion: 2
  m_Modification:
    m_TransformParent: {fileID: 0}
    m_Modifications:
    - target: {fileID: 4455386946758338, guid: 4267a73d17b7d9e43ac8f081fee64d02, type: 3}
      propertyPath: m_RootOrder
      value: 4
      objectReference: {fileID: 0}
    - target: {fileID: 4455386946758338, guid: 4267a73d17b7d9e43ac8f081fee64d02, type: 3}
      propertyPath: m_LocalPosition.x
      value: -13.21
      objectReference: {fileID: 0}
    - target: {fileID: 4455386946758338, guid: 4267a73d17b7d9e43ac8f081fee64d02, type: 3}
      propertyPath: m_LocalPosition.y
      value: 0
      objectReference: {fileID: 0}
    - target: {fileID: 4455386946758338, guid: 4267a73d17b7d9e43ac8f081fee64d02, type: 3}
      propertyPath: m_LocalPosition.z
      value: -3.86
      objectReference: {fileID: 0}
    - target: {fileID: 4455386946758338, guid: 4267a73d17b7d9e43ac8f081fee64d02, type: 3}
      propertyPath: m_LocalRotation.w
      value: 1
      objectReference: {fileID: 0}
    - target: {fileID: 4455386946758338, guid: 4267a73d17b7d9e43ac8f081fee64d02, type: 3}
      propertyPath: m_LocalRotation.x
      value: 0
      objectReference: {fileID: 0}
    - target: {fileID: 4455386946758338, guid: 4267a73d17b7d9e43ac8f081fee64d02, type: 3}
      propertyPath: m_LocalRotation.y
      value: 0
      objectReference: {fileID: 0}
    - target: {fileID: 4455386946758338, guid: 4267a73d17b7d9e43ac8f081fee64d02, type: 3}
      propertyPath: m_LocalRotation.z
      value: 0
      objectReference: {fileID: 0}
    m_RemovedComponents: []
  m_SourcePrefab: {fileID: 100100000, guid: 4267a73d17b7d9e43ac8f081fee64d02, type: 3}
--- !u!1001 &1980475257
PrefabInstance:
  m_ObjectHideFlags: 0
  serializedVersion: 2
  m_Modification:
    m_TransformParent: {fileID: 0}
    m_Modifications:
    - target: {fileID: 4013697766558334, guid: 803b215b246199648b3c0e082b23f061, type: 3}
      propertyPath: m_RootOrder
      value: 16
      objectReference: {fileID: 0}
    - target: {fileID: 4013697766558334, guid: 803b215b246199648b3c0e082b23f061, type: 3}
      propertyPath: m_LocalPosition.x
      value: -5.83
      objectReference: {fileID: 0}
    - target: {fileID: 4013697766558334, guid: 803b215b246199648b3c0e082b23f061, type: 3}
      propertyPath: m_LocalPosition.y
      value: 0
      objectReference: {fileID: 0}
    - target: {fileID: 4013697766558334, guid: 803b215b246199648b3c0e082b23f061, type: 3}
      propertyPath: m_LocalPosition.z
      value: 0
      objectReference: {fileID: 0}
    - target: {fileID: 4013697766558334, guid: 803b215b246199648b3c0e082b23f061, type: 3}
      propertyPath: m_LocalRotation.w
      value: 1
      objectReference: {fileID: 0}
    - target: {fileID: 4013697766558334, guid: 803b215b246199648b3c0e082b23f061, type: 3}
      propertyPath: m_LocalRotation.x
      value: 0
      objectReference: {fileID: 0}
    - target: {fileID: 4013697766558334, guid: 803b215b246199648b3c0e082b23f061, type: 3}
      propertyPath: m_LocalRotation.y
      value: 0
      objectReference: {fileID: 0}
    - target: {fileID: 4013697766558334, guid: 803b215b246199648b3c0e082b23f061, type: 3}
      propertyPath: m_LocalRotation.z
      value: 0
      objectReference: {fileID: 0}
    m_RemovedComponents: []
  m_SourcePrefab: {fileID: 100100000, guid: 803b215b246199648b3c0e082b23f061, type: 3}
